<svg width="10" height="7" viewBox="0 0 10 7" fill="none" xmlns="http://www.w3.org/2000/svg">
<path d="M8.90425 1.48962L5.32335 5.96247C4.92302 6.4625 4.16238 6.4625 3.76205 5.96247L0.181151 1.48962C0.0626643 1.34113 -0.00210593 1.14191 0.00108917 0.935771C0.00428428 0.729634 0.0751831 0.533472 0.198189 0.390438C0.321194 0.247404 0.486231 0.169216 0.656992 0.173072C0.827753 0.176929 0.990251 0.262516 1.10874 0.411005L4.5427 4.70263L7.98045 0.411005C8.09893 0.262516 8.26143 0.176929 8.43219 0.173072C8.60296 0.169216 8.76799 0.247404 8.891 0.390438C9.014 0.533472 9.0849 0.729634 9.0881 0.935771C9.09129 1.14191 9.02652 1.34113 8.90804 1.48962H8.90425Z" fill="white"/>
</svg>
